{
  "name": "create",
  "width": 300,
  "height": 200,
  "alwaysOnTop": true,
  "transparent": true,
  "frame": false,
  "show": false,
  "closable": true,
  "minimizable": false,
  "maximizable": false,
  "resizable": false,
  "fullscreenable": false,
  "hasShadow": false,
  "devTools": false
}
