{
  "name": "home",
  "url": "/",
  "closable": true,
  "show": false,
  "frame": false,
  "transparent": true,
  "width": 400,
  "height": 450,
  "hasShadow": false,
  "alwaysOnTop": true,
  "devTools": false,
  "resizable": false
}
