{
  "name": "settings",
  "width": 530,
  "height": 418,
  "alwaysOnTop": true,
  "titleBarStyle": "hidden",
  "minimizable": false,
  "maximizable": false,
  "resizable": false,
  "fullscreenable": false
}
